lab 8/task 1/simulation/qsim/lab8_task1.msim.vcd
$comment
	File created using the following command:
		vcd file lab8_task1.msim.vcd -direction
$end
$date
	Wed Feb 28 16:21:06 2018
$end
$version
	ModelSim Version 10.5b
$end
$timescale
	1ps
$end

$scope module arf8_vhd_vec_tst $end
$var wire 1 ! clk $end
$var wire 1 " rdAddr1 [2] $end
$var wire 1 # rdAddr1 [1] $end
$var wire 1 $ rdAddr1 [0] $end
$var wire 1 % rdAddr2 [2] $end
$var wire 1 & rdAddr2 [1] $end
$var wire 1 ' rdAddr2 [0] $end
$var wire 1 ( rdData1 [3] $end
$var wire 1 ) rdData1 [2] $end
$var wire 1 * rdData1 [1] $end
$var wire 1 + rdData1 [0] $end
$var wire 1 , rdData2 [3] $end
$var wire 1 - rdData2 [2] $end
$var wire 1 . rdData2 [1] $end
$var wire 1 / rdData2 [0] $end
$var wire 1 0 rst $end
$var wire 1 1 wrAddr [2] $end
$var wire 1 2 wrAddr [1] $end
$var wire 1 3 wrAddr [0] $end
$var wire 1 4 wrData [3] $end
$var wire 1 5 wrData [2] $end
$var wire 1 6 wrData [1] $end
$var wire 1 7 wrData [0] $end
$var wire 1 8 wrEn $end

$scope module i1 $end
$var wire 1 9 gnd $end
$var wire 1 : vcc $end
$var wire 1 ; unknown $end
$var wire 1 < devoe $end
$var wire 1 = devclrn $end
$var wire 1 > devpor $end
$var wire 1 ? ww_devoe $end
$var wire 1 @ ww_devclrn $end
$var wire 1 A ww_devpor $end
$var wire 1 B ww_clk $end
$var wire 1 C ww_rst $end
$var wire 1 D ww_wrEn $end
$var wire 1 E ww_rdAddr1 [2] $end
$var wire 1 F ww_rdAddr1 [1] $end
$var wire 1 G ww_rdAddr1 [0] $end
$var wire 1 H ww_rdAddr2 [2] $end
$var wire 1 I ww_rdAddr2 [1] $end
$var wire 1 J ww_rdAddr2 [0] $end
$var wire 1 K ww_wrAddr [2] $end
$var wire 1 L ww_wrAddr [1] $end
$var wire 1 M ww_wrAddr [0] $end
$var wire 1 N ww_wrData [3] $end
$var wire 1 O ww_wrData [2] $end
$var wire 1 P ww_wrData [1] $end
$var wire 1 Q ww_wrData [0] $end
$var wire 1 R ww_rdData1 [3] $end
$var wire 1 S ww_rdData1 [2] $end
$var wire 1 T ww_rdData1 [1] $end
$var wire 1 U ww_rdData1 [0] $end
$var wire 1 V ww_rdData2 [3] $end
$var wire 1 W ww_rdData2 [2] $end
$var wire 1 X ww_rdData2 [1] $end
$var wire 1 Y ww_rdData2 [0] $end
$var wire 1 Z \rdData1[0]~output_o\ $end
$var wire 1 [ \rdData1[1]~output_o\ $end
$var wire 1 \ \rdData1[2]~output_o\ $end
$var wire 1 ] \rdData1[3]~output_o\ $end
$var wire 1 ^ \rdData2[0]~output_o\ $end
$var wire 1 _ \rdData2[1]~output_o\ $end
$var wire 1 ` \rdData2[2]~output_o\ $end
$var wire 1 a \rdData2[3]~output_o\ $end
$var wire 1 b \clk~input_o\ $end
$var wire 1 c \wrData[0]~input_o\ $end
$var wire 1 d \rst~input_o\ $end
$var wire 1 e \wrAddr[1]~input_o\ $end
$var wire 1 f \wrEn~input_o\ $end
$var wire 1 g \wrAddr[0]~input_o\ $end
$var wire 1 h \wrAddr[2]~input_o\ $end
$var wire 1 i \WriteAddressBlock|Mux5~0_combout\ $end
$var wire 1 j \WriteAddressBlock|Mux4~0_combout\ $end
$var wire 1 k \rdAddr1[1]~input_o\ $end
$var wire 1 l \rdAddr1[2]~input_o\ $end
$var wire 1 m \Read1AddressBlock|Mux3~0_combout\ $end
$var wire 1 n \WriteAddressBlock|Mux6~0_combout\ $end
$var wire 1 o \WriteAddressBlock|Mux1~0_combout\ $end
$var wire 1 p \WriteAddressBlock|Mux2~0_combout\ $end
$var wire 1 q \rdAddr1[0]~input_o\ $end
$var wire 1 r \WriteAddressBlock|Mux3~0_combout\ $end
$var wire 1 s \Read1AddressBlock|Mux3~1_combout\ $end
$var wire 1 t \WriteAddressBlock|Mux0~0_combout\ $end
$var wire 1 u \Read1AddressBlock|Mux3~2_combout\ $end
$var wire 1 v \Read1AddressBlock|Mux3~3_combout\ $end
$var wire 1 w \Read1AddressBlock|Mux3~4_combout\ $end
$var wire 1 x \Read1AddressBlock|Mux3~5_combout\ $end
$var wire 1 y \Read1AddressBlock|Mux3~combout\ $end
$var wire 1 z \wrData[1]~input_o\ $end
$var wire 1 { \Read1AddressBlock|Mux2~0_combout\ $end
$var wire 1 | \Read1AddressBlock|Mux2~1_combout\ $end
$var wire 1 } \Read1AddressBlock|Mux2~2_combout\ $end
$var wire 1 ~ \Read1AddressBlock|Mux2~combout\ $end
$var wire 1 !! \wrData[2]~input_o\ $end
$var wire 1 "! \Read1AddressBlock|Mux1~0_combout\ $end
$var wire 1 #! \Read1AddressBlock|Mux1~1_combout\ $end
$var wire 1 $! \Read1AddressBlock|Mux1~2_combout\ $end
$var wire 1 %! \Read1AddressBlock|Mux1~combout\ $end
$var wire 1 &! \wrData[3]~input_o\ $end
$var wire 1 '! \Read1AddressBlock|Mux0~0_combout\ $end
$var wire 1 (! \Read1AddressBlock|Mux0~1_combout\ $end
$var wire 1 )! \Read1AddressBlock|Mux0~2_combout\ $end
$var wire 1 *! \Read1AddressBlock|Mux0~combout\ $end
$var wire 1 +! \rdAddr2[1]~input_o\ $end
$var wire 1 ,! \rdAddr2[2]~input_o\ $end
$var wire 1 -! \Read2AddressBlock|Mux3~0_combout\ $end
$var wire 1 .! \rdAddr2[0]~input_o\ $end
$var wire 1 /! \Read2AddressBlock|Mux3~1_combout\ $end
$var wire 1 0! \Read2AddressBlock|Mux3~2_combout\ $end
$var wire 1 1! \Read2AddressBlock|Mux3~3_combout\ $end
$var wire 1 2! \Read2AddressBlock|Mux3~4_combout\ $end
$var wire 1 3! \Read2AddressBlock|Mux3~5_combout\ $end
$var wire 1 4! \Read2AddressBlock|Mux3~combout\ $end
$var wire 1 5! \Read2AddressBlock|Mux2~0_combout\ $end
$var wire 1 6! \Read2AddressBlock|Mux2~1_combout\ $end
$var wire 1 7! \Read2AddressBlock|Mux2~2_combout\ $end
$var wire 1 8! \Read2AddressBlock|Mux2~combout\ $end
$var wire 1 9! \Read2AddressBlock|Mux1~0_combout\ $end
$var wire 1 :! \Read2AddressBlock|Mux1~1_combout\ $end
$var wire 1 ;! \Read2AddressBlock|Mux1~2_combout\ $end
$var wire 1 <! \Read2AddressBlock|Mux1~combout\ $end
$var wire 1 =! \Read2AddressBlock|Mux0~0_combout\ $end
$var wire 1 >! \Read2AddressBlock|Mux0~1_combout\ $end
$var wire 1 ?! \Read2AddressBlock|Mux0~2_combout\ $end
$var wire 1 @! \Read2AddressBlock|Mux0~combout\ $end
$var wire 1 A! \HardWired:flopsBlock:2:dFlop|q\ [3] $end
$var wire 1 B! \HardWired:flopsBlock:2:dFlop|q\ [2] $end
$var wire 1 C! \HardWired:flopsBlock:2:dFlop|q\ [1] $end
$var wire 1 D! \HardWired:flopsBlock:2:dFlop|q\ [0] $end
$var wire 1 E! \HardWired:flopsBlock:3:dFlop|q\ [3] $end
$var wire 1 F! \HardWired:flopsBlock:3:dFlop|q\ [2] $end
$var wire 1 G! \HardWired:flopsBlock:3:dFlop|q\ [1] $end
$var wire 1 H! \HardWired:flopsBlock:3:dFlop|q\ [0] $end
$var wire 1 I! \HardWired:flopsBlock:4:dFlop|q\ [3] $end
$var wire 1 J! \HardWired:flopsBlock:4:dFlop|q\ [2] $end
$var wire 1 K! \HardWired:flopsBlock:4:dFlop|q\ [1] $end
$var wire 1 L! \HardWired:flopsBlock:4:dFlop|q\ [0] $end
$var wire 1 M! \HardWired:flopsBlock:1:dFlop|q\ [3] $end
$var wire 1 N! \HardWired:flopsBlock:1:dFlop|q\ [2] $end
$var wire 1 O! \HardWired:flopsBlock:1:dFlop|q\ [1] $end
$var wire 1 P! \HardWired:flopsBlock:1:dFlop|q\ [0] $end
$var wire 1 Q! \HardWired:flopsBlock:6:dFlop|q\ [3] $end
$var wire 1 R! \HardWired:flopsBlock:6:dFlop|q\ [2] $end
$var wire 1 S! \HardWired:flopsBlock:6:dFlop|q\ [1] $end
$var wire 1 T! \HardWired:flopsBlock:6:dFlop|q\ [0] $end
$var wire 1 U! \HardWired:flopsBlock:5:dFlop|q\ [3] $end
$var wire 1 V! \HardWired:flopsBlock:5:dFlop|q\ [2] $end
$var wire 1 W! \HardWired:flopsBlock:5:dFlop|q\ [1] $end
$var wire 1 X! \HardWired:flopsBlock:5:dFlop|q\ [0] $end
$var wire 1 Y! \HardWired:flopsBlock:7:dFlop|q\ [3] $end
$var wire 1 Z! \HardWired:flopsBlock:7:dFlop|q\ [2] $end
$var wire 1 [! \HardWired:flopsBlock:7:dFlop|q\ [1] $end
$var wire 1 \! \HardWired:flopsBlock:7:dFlop|q\ [0] $end
$var wire 1 ]! \ALT_INV_rst~input_o\ $end
$upscope $end
$upscope $end
$enddefinitions $end
#0
$dumpvars
0!
10
08
09
1:
x;
1<
1=
1>
1?
1@
1A
0B
1C
0D
0Z
0[
0\
0]
0^
0_
0`
0a
0b
1c
1d
1e
0f
1g
1h
0i
0j
1k
1l
0m
0n
0o
0p
1q
0r
1s
0t
0u
1v
1w
0x
0y
1z
1{
0|
0}
0~
1!!
1"!
0#!
0$!
0%!
0&!
1'!
0(!
0)!
0*!
1+!
1,!
0-!
1.!
1/!
00!
11!
12!
03!
04!
15!
06!
07!
08!
19!
0:!
0;!
0<!
1=!
0>!
0?!
0@!
0]!
1"
1#
1$
1%
1&
1'
11
12
13
04
15
16
17
1E
1F
1G
1H
1I
1J
1K
1L
1M
0N
1O
1P
1Q
0R
0S
0T
0U
0V
0W
0X
0Y
0A!
0B!
0C!
0D!
0E!
0F!
0G!
0H!
0I!
0J!
0K!
0L!
0M!
0N!
0O!
0P!
0Q!
0R!
0S!
0T!
0U!
0V!
0W!
0X!
0Y!
0Z!
0[!
0\!
0(
0)
0*
0+
0,
0-
0.
0/
$end
#10000
18
0"
0%
0&
01
02
1D
0E
0I
0H
0L
0K
0h
0e
0,!
0+!
0l
1f
1m
0v
0/!
10!
05!
16!
09!
0=!
1>!
02!
1n
0>!
06!
00!
1x
1}
1$!
1)!
#12500
1!
1B
1b
#20000
08
1"
0#
0'
03
05
06
07
0D
0F
1E
0J
0M
0Q
0P
0O
0!!
0z
0c
0g
0.!
1l
0k
0f
0s
1u
0{
1|
0"!
0'!
1(!
0m
1v
01!
0n
0$!
1y
1~
1%!
1*!
0(!
0|
0u
0x
0}
0)!
0%!
0*!
0~
0y
1]
1\
1[
1Z
1R
1S
1T
1U
0\
1+
1*
1)
1(
0S
0Z
0[
0]
0)
0U
0T
0R
0+
0*
0(
#25000
0!
0B
0b
#30000
18
1#
1'
13
15
0$
1D
0G
1F
1J
1M
1O
1!!
1g
1.!
1k
0q
1f
11!
1n
#37500
1!
1B
1b
#40000
08
0#
0'
03
05
0"
16
17
1%
11
00
14
0D
0F
0E
0J
1H
0M
1K
1Q
1P
0O
1N
0C
0d
1&!
0!!
1z
1c
1h
0g
1,!
0.!
0l
0k
0f
1]!
0v
0w
12!
0n
#50000
18
1#
06
0%
01
04
0!
1$
1D
1G
1F
0P
0N
0H
0K
0B
0b
0h
0,!
0&!
0z
1k
1q
1f
1m
1s
1w
1{
1"!
1'!
01!
02!
1x
1}
1$!
1)!
#60000
08
16
0$
1'
13
1&
12
0D
1P
0G
1J
1I
1M
1L
1e
1g
1+!
1.!
0q
1z
0f
0s
0w
0{
0"!
1#!
0'!
1-!
1/!
12!
15!
19!
1=!
13!
17!
1;!
1?!
0#!
0x
0}
0$!
0)!
#62500
1!
1B
1b
#70000
18
06
1$
0#
1%
11
14
1D
0P
1N
1G
0F
1H
1K
1h
1,!
0k
1q
1&!
0z
1f
0m
1v
0-!
11!
1t
03!
07!
0;!
0?!
14!
18!
1<!
1@!
0@!
0<!
08!
04!
1a
1`
1_
1^
1V
1W
1X
1Y
0^
0_
0`
0a
1/
1.
1-
1,
0Y
0X
0W
0V
0/
0.
0-
0,
#75000
0!
0B
0b
#80000
08
1#
0%
01
15
1"
07
0D
1F
1E
0H
0K
0Q
1O
1!!
0c
0h
0,!
1l
1k
0f
1s
1{
1"!
1'!
1w
1-!
01!
0t
13!
17!
1;!
1?!
#87500
1!
1B
1b
#90000
18
05
17
16
0$
0'
03
0&
02
1D
1Q
1P
0O
0G
0J
0I
0M
0L
0e
0g
0+!
0.!
0q
0!!
1z
1c
1f
0s
0{
0"!
1#!
0'!
1:!
0-!
0/!
10!
02!
05!
16!
09!
0=!
1>!
0>!
0:!
06!
07!
0?!
03!
00!
14!
18!
1<!
1@!
0;!
1$!
0#!
0$!
1%!
0<!
04!
0@!
08!
0%!
1a
1`
1_
1^
1V
1W
1X
1Y
0_
0a
0^
0`
1\
1/
1.
1-
1,
0X
0V
0Y
0W
1S
0\
0/
0.
0-
0,
1)
0S
0)
#100000
08
1&
12
0!
1%
11
0"
0D
1I
1H
1L
1K
0B
0E
0l
0b
1h
1e
1,!
1+!
0f
11!
12!
1m
0v
0w
#110000
18
0%
01
1"
06
1'
13
04
1D
1J
0H
1M
0K
1E
0P
0N
0&!
0z
1l
0h
1g
0,!
1.!
1f
1/!
15!
19!
1=!
1-!
01!
1j
0m
1v
1w
13!
17!
1;!
1?!
#112500
1!
1B
1b
1H!
14!
1^
1Y
1/
#120000
08
16
0&
02
15
07
0D
0Q
1P
1O
0I
0L
0e
0+!
1!!
1z
0c
0f
0-!
0/!
10!
11!
02!
05!
16!
09!
0=!
1>!
0j
0>!
06!
07!
0;!
0?!
03!
00!
18!
1<!
1@!
04!
0@!
0<!
08!
1a
1`
1_
1V
1W
1X
0_
0`
0a
0^
1.
1-
1,
0X
0W
0V
0Y
0/
0.
0-
0,
#125000
0!
0B
0b
#130000
18
05
17
0"
1D
1Q
0O
0E
0l
0!!
1c
1f
1n
1m
0v
0w
#137500
1!
1B
1b
1P!
1O!
17!
13!
14!
18!
1_
1^
1X
1Y
1/
1.
#140000
08
06
1&
12
1%
11
0'
03
14
0D
0P
1N
0J
1I
1H
0M
1L
1K
1h
1e
0g
1,!
1+!
0.!
1&!
0z
0f
12!
0n
03!
07!
08!
04!
0^
0_
0Y
0X
0/
0.
#150000
18
0&
02
0%
01
04
0!
1"
1$
1D
0I
0H
0L
0K
0N
0B
1G
1E
1l
1q
0b
0&!
0h
0e
0,!
0+!
1f
01!
02!
1s
1{
1"!
1'!
0m
1v
1w
#160000
08
1&
12
1%
11
14
0$
1'
13
15
0#
0D
1J
1I
1H
1M
1L
1K
1O
1N
0G
0F
0k
0q
1&!
1!!
1h
1e
1g
1,!
1+!
1.!
0f
1/!
15!
19!
1=!
11!
12!
1#!
0s
1u
0{
1|
0"!
0'!
1(!
1)!
0(!
0#!
1}
0|
1x
0u
1$!
1%!
0x
1y
0}
1~
0$!
0)!
1*!
0*!
0%!
0~
0y
1]
1[
1Z
1\
1R
1T
1U
1S
0Z
0[
0\
0]
1+
1*
1)
1(
0U
0T
0S
0R
0+
0*
0)
0(
#162500
1!
1B
1b
#170000
18
0&
02
04
1$
10
1D
0I
0L
0N
1G
1C
1d
1q
0&!
0e
0+!
1f
0]!
0/!
10!
05!
16!
09!
0=!
1>!
1p
0H!
0P!
0O!
1?!
0>!
17!
06!
13!
00!
03!
14!
07!
18!
0?!
1@!
0@!
08!
04!
1a
1_
1^
1V
1X
1Y
0^
0_
0a
1/
1.
1,
0Y
0X
0V
0/
0.
0,
#175000
0!
0B
0b
#180000
08
1&
12
00
0%
01
05
0"
07
0D
1I
0H
1L
0K
0C
0Q
0O
0E
0l
0!!
0c
0d
0h
1e
0,!
1+!
0f
1]!
1/!
15!
19!
1=!
1-!
01!
0p
0w
13!
17!
1;!
1?!
#187500
1!
1B
1b
#190000
18
1%
11
0$
16
1D
1H
1K
0G
1P
1z
0q
1h
1,!
1f
0-!
11!
1t
0v
03!
07!
0;!
0?!
14!
18!
1<!
1@!
0@!
0<!
08!
04!
1a
1`
1_
1^
1V
1W
1X
1Y
0^
0_
0`
0a
1/
1.
1-
1,
0Y
0X
0W
0V
0/
0.
0-
0,
#200000
08
0%
01
06
0!
14
0'
03
1#
0D
0J
0H
0M
0K
0P
1N
0B
1F
1k
0b
1&!
0z
0h
0g
0,!
0.!
0f
0/!
05!
09!
1:!
0=!
1-!
01!
02!
0t
1m
0:!
#210000
18
1'
13
0#
0&
02
1"
17
1D
1J
0I
1M
0L
0F
1E
1Q
1c
1l
0k
0e
1g
0+!
1.!
1f
0-!
11!
1n
0m
1v
1w
#212500
1!
1B
1b
1P!
1M!
1?!
13!
14!
1@!
1a
1^
1V
1Y
1/
1,
#220000
08
0'
03
07
0D
0J
0M
0Q
0c
0g
0.!
0f
01!
0n
03!
0?!
0@!
04!
0^
0a
0Y
0V
0/
0,
#225000
0!
0B
0b
#230000
18
1'
13
17
1&
12
1%
11
04
1$
15
1D
1J
1I
1H
1M
1L
1K
1Q
1O
0N
1G
1q
0&!
1!!
1c
1h
1e
1g
1,!
1+!
1.!
1f
1/!
15!
19!
1=!
11!
12!
1t
#237500
1!
1B
1b
1\!
1Z!
1:!
10!
13!
1;!
1<!
14!
1^
1`
1Y
1W
1/
1-
#240000
08
0'
03
07
0"
16
0D
0J
0M
0Q
1P
0E
0l
1z
0c
0g
0.!
0f
0/!
05!
09!
0=!
0t
0w
1x
1)!
0:!
00!
03!
0;!
1*!
1y
0<!
04!
1Z
1]
1U
1R
0^
0`
1+
1(
0Y
0W
0/
0-
#250000
18
1'
13
06
0!
0&
02
14
05
1D
1J
0I
1M
0L
0P
0O
1N
0B
0b
1&!
0!!
0z
0e
1g
0+!
1.!
1f
1p
#260000
08
16
15
1"
0%
01
0$
0D
1P
1O
0G
1E
0H
0K
0h
0,!
1l
0q
1!!
1z
0f
1w
02!
0p
13!
1?!
0x
0)!
0*!
0y
1@!
14!
1^
1a
0Z
0]
1Y
1V
0U
0R
1/
1,
0+
0(
#262500
1!
1B
1b
#270000
18
06
1%
11
1$
0'
03
1&
12
04
1#
1D
0P
0N
0J
1I
1H
0M
1L
1K
1G
1F
1k
1q
1h
1e
0g
1,!
1+!
0.!
0&!
0z
1f
12!
1o
1s
1{
1"!
1'!
1#!
1u
03!
0?!
0@!
04!
1x
1$!
1%!
1y
0^
0a
0Y
0V
1Z
1\
0/
0,
1U
1S
1+
1)
#275000
0!
0B
0b
#280000
1!
08
0%
01
0&
02
14
0#
05
0"
10
1B
0D
0I
0H
0L
0K
0O
1N
0F
0E
1C
1d
0l
0k
1&!
0!!
0h
0e
0,!
0+!
0f
1b
0]!
1R!
01!
02!
0o
0s
0{
1|
0"!
0'!
1(!
0w
0P!
0\!
0R!
0Z!
0M!
0$!
1)!
0(!
0#!
0|
0u
0)!
0x
1*!
0%!
0y
0*!
0\
1]
0]
0Z
0S
1R
0R
0U
0)
1(
0+
0(
#290000
18
1%
11
1&
12
04
1'
13
17
1D
1J
1I
1H
1M
1L
1K
1Q
0N
0&!
1c
1h
1e
1g
1,!
1+!
1.!
1f
1/!
15!
19!
1=!
11!
12!
1t
#300000
08
0&
02
14
07
1"
0$
0D
0I
0L
0Q
1N
0G
1E
1l
0q
1&!
0c
0e
0+!
0f
0/!
10!
05!
16!
09!
0=!
1>!
0t
1w
1?!
0>!
17!
06!
13!
00!
03!
14!
07!
18!
0?!
1@!
0@!
08!
04!
1a
1_
1^
1V
1X
1Y
0^
0_
0a
1/
1.
1,
0Y
0X
0V
0/
0.
0,
#310000
18
04
1$
0'
03
1#
16
1D
1P
0N
1G
1F
0J
0M
0g
0.!
1k
1q
0&!
1z
1f
1s
1{
1"!
1'!
1r
#320000
08
1'
13
0#
0"
0D
1J
1M
0F
0E
0l
0k
1g
1.!
0f
0r
0s
1u
0{
1|
0"!
0'!
1(!
0w
0(!
0|
0u
#330000
18
0'
03
1#
14
17
1D
0J
0M
1F
1Q
1N
1&!
1c
1k
0g
0.!
1f
1r
1m
1s
0v
1w
1{
1"!
1'!
1x
1}
1$!
1)!
#340000
08
1'
13
0#
07
0$
06
1&
12
0%
01
15
0D
1J
1I
0H
1M
1L
0K
0G
0F
0Q
0P
1O
1!!
0z
0c
0k
0q
0h
1e
1g
0,!
1+!
1.!
0f
1/!
15!
19!
1=!
1-!
01!
0r
1#!
0m
0s
1u
0w
0{
1|
0"!
0'!
1(!
0(!
0#!
0|
0}
0)!
0x
0u
1y
1~
1%!
1*!
0$!
13!
17!
1;!
1?!
0%!
0y
0*!
0~
1]
1\
1[
1Z
1R
1S
1T
1U
0[
0]
0Z
0\
1+
1*
1)
1(
0T
0R
0U
0S
0+
0*
0)
0(
#350000
18
1#
17
16
05
04
1"
1D
1F
1E
1Q
1P
0O
0N
0&!
0!!
1z
1c
1l
1k
1f
1j
1v
1w
#360000
08
0#
07
15
0'
03
0D
0F
0Q
1O
0J
0M
0g
0.!
1!!
0c
0k
0f
0/!
02!
05!
09!
1:!
0=!
0j
0:!
03!
07!
0;!
0?!
#370000
18
05
06
0"
1%
11
00
1D
0P
0O
0E
1H
1K
0C
0d
1h
1,!
0l
0!!
0z
1f
1]!
0v
0w
0-!
11!
12!
1o
#375000
0!
0B
0b
#380000
08
16
1"
0%
01
1#
17
1$
0D
1Q
1P
1G
1F
1E
0H
0K
0h
0,!
1l
1k
1q
1z
1c
0f
1s
1{
1"!
1'!
1v
1w
1-!
01!
02!
0o
#387500
1!
1B
1b
#390000
18
06
0#
0$
1'
13
1D
0P
0G
0F
1J
1M
1g
1.!
0k
0q
0z
1f
1#!
0s
1u
0{
1|
0"!
0'!
1(!
1/!
12!
15!
19!
1=!
1j
13!
17!
1;!
1?!
1)!
0(!
0#!
1}
0|
1x
0u
1$!
1%!
0x
1y
0}
1~
0$!
0)!
1*!
0*!
0%!
0~
0y
1]
1[
1Z
1\
1R
1T
1U
1S
0Z
0[
0\
0]
1+
1*
1)
1(
0U
0T
0S
0R
0+
0*
0)
0(
#400000
08
16
1$
0!
0"
15
14
0D
1P
1O
1N
1G
0E
0B
0b
0l
1q
1&!
1!!
1z
0f
0j
0w
#410000
18
0$
1"
05
04
1%
11
07
1D
0G
1E
0Q
0O
0N
1H
1K
1h
1,!
0&!
0!!
0c
1l
0q
1f
1w
0-!
11!
1t
03!
07!
0;!
0?!
14!
18!
1<!
1@!
0@!
0<!
08!
04!
1a
1`
1_
1^
1V
1W
1X
1Y
0^
0_
0`
0a
1/
1.
1-
1,
0Y
0X
0W
0V
0/
0.
0-
0,
#412500
1!
1B
1b
1[!
16!
17!
18!
1_
1X
1.
#420000
08
1$
0%
01
06
1#
0D
1G
1F
0H
0K
0P
0z
0h
0,!
1k
1q
0f
1s
1{
1"!
1'!
1-!
01!
0t
13!
1;!
1?!
08!
1|
1}
1~
0_
0X
0.
1[
1T
1*
#425000
0!
0B
0b
#430000
18
1%
11
0#
15
17
0&
02
1D
0I
1H
0L
1K
0F
1Q
1O
1!!
1c
0k
1h
0e
1,!
0+!
1f
0/!
10!
05!
09!
0=!
1>!
0-!
11!
1p
0s
1u
0{
0"!
0'!
1(!
1)!
0(!
0|
1x
0u
0;!
14!
18!
1<!
1@!
0>!
06!
00!
03!
07!
0?!
0<!
0x
1y
0}
0)!
1*!
0*!
0~
0y
0@!
08!
04!
1a
1`
1_
1^
1V
1W
1X
1Y
1]
1Z
0`
1/
1.
1-
1,
1R
1U
0W
0^
0_
0a
0Z
0[
0]
1+
1(
0-
0Y
0X
0V
0U
0T
0R
0/
0.
0,
0+
0*
0(
#437500
1!
1B
1b
1X!
1V!
1#!
1:!
1s
1/!
10!
1u
1;!
1$!
1%!
1<!
1x
13!
14!
1y
1`
1\
1W
1S
1Z
1^
1-
1)
1U
1Y
1+
1/
#440000
08
1#
16
14
0'
03
0D
1F
1P
1N
0J
0M
0g
0.!
1&!
1z
1k
0f
0u
1{
1"!
1'!
0/!
0:!
0p
0;!
00!
0#!
1|
0x
0y
1}
0$!
03!
0<!
04!
0%!
1~
0`
0Z
0W
0U
1[
0\
0^
0-
0+
1T
0S
0Y
1*
0)
0/
#450000
18
0!
1&
12
0"
1D
0B
1I
1L
0E
0l
1e
1+!
0b
1f
1o
1m
0v
1x
1$!
1)!
0~
0[
0T
0*
#460000
08
0&
02
0#
06
0%
01
07
0D
0I
0H
0L
0K
0F
0Q
0P
0z
0c
0k
0h
0e
0,!
0+!
0f
01!
02!
0o
0m
1u
1v
0w
0{
0"!
0'!
1(!
0(!
1#!
0|
0}
0$!
0)!
0x
1y
1~
1%!
1*!
0y
0*!
0%!
0~
1]
1\
1[
1Z
1R
1S
1T
1U
0[
0\
0]
0Z
1+
1*
1)
1(
0T
0S
0R
0U
0+
0*
0)
0(
#462500
1!
1B
1b
#470000
18
1&
12
1"
1'
13
05
0$
1D
1J
1I
1M
1L
0G
1E
0O
0!!
1l
0q
1e
1g
1+!
1.!
1f
1:!
1-!
1/!
12!
15!
19!
1=!
1j
0s
0#!
1w
1x
0u
0:!
16!
13!
17!
1?!
1;!
0x
1y
0y
1Z
1U
0Z
1+
0U
0+
#475000
0!
0B
0b
#480000
08
0"
0'
03
15
1$
1#
16
04
0D
1G
1F
0E
0J
0M
1P
1O
0N
0&!
1!!
1z
0g
0.!
0l
1k
1q
0f
1#!
1s
1{
1"!
1'!
1m
0v
0/!
02!
05!
09!
1:!
0=!
0j
0:!
06!
03!
07!
0;!
0?!
1x
1}
1)!
0#!
1|
1$!
#487500
1!
1B
1b
#490000
18
1'
13
05
0$
14
0&
02
1%
11
1D
1J
0I
1H
1M
0L
1K
0O
1N
0G
0q
1&!
0!!
1h
0e
1g
1,!
0+!
1.!
1f
1:!
1/!
0-!
11!
12!
1p
0s
0w
0{
0"!
1#!
0'!
0#!
0|
0x
0}
0$!
0)!
10!
1;!
1<!
13!
14!
1`
1W
1^
1-
1Y
1/
#500000
08
04
0%
01
0!
1"
0#
0D
0N
0H
0K
0B
0F
1E
1l
0k
0b
0h
0,!
0&!
0f
02!
0p
0m
1v
1w
03!
0;!
0<!
04!
0^
0`
0Y
0W
0/
0-
#510000
18
14
0"
1&
12
06
17
1D
1Q
0P
1N
0E
1I
1L
1e
1+!
0l
1&!
0z
1c
1f
0v
0w
1-!
00!
01!
12!
15!
19!
1=!
1j
0:!
16!
17!
1;!
1?!
13!
#512500
1!
1B
1b
1H!
1E!
1@!
14!
1^
1a
1Y
1V
1/
1,
#520000
08
04
0&
02
07
0'
03
0D
0Q
0N
0J
0I
0M
0L
0e
0g
0+!
0.!
0&!
0c
0f
1:!
0-!
0/!
10!
02!
05!
09!
0=!
1>!
0j
0>!
0:!
06!
07!
0?!
03!
00!
18!
1<!
0;!
0<!
04!
0@!
08!
1`
1_
1W
1X
0_
0a
0^
0`
1.
1-
0X
0V
0Y
0W
0/
0.
0-
0,
#525000
0!
0B
0b
#530000
18
14
1&
12
1'
13
1"
16
15
1$
1D
1P
1O
1N
1J
1I
1M
1L
1G
1E
1l
1q
1e
1g
1+!
1.!
1&!
1!!
1z
1f
1:!
1-!
1/!
12!
15!
19!
1=!
1j
1s
1#!
1v
1w
1$!
1u
0:!
16!
13!
17!
1?!
1;!
1@!
14!
1x
1%!
1y
1\
1^
1a
1S
1Y
1V
1Z
1)
1/
1,
1U
1+
#537500
1!
1B
1b
0H!
1G!
1F!
1<!
18!
04!
0^
1_
1`
0Y
1X
1W
0/
1.
1-
#540000
08
0&
02
0'
03
05
0$
17
0D
0J
0I
0M
0L
1Q
0O
0G
0q
0!!
1c
0e
0g
0+!
0.!
0f
1:!
0-!
0/!
10!
02!
05!
09!
0=!
1>!
0j
0s
0#!
0$!
0u
0>!
0:!
06!
07!
0?!
03!
00!
14!
0;!
0<!
04!
0@!
08!
0x
0%!
0y
1^
1Y
0\
0_
0a
0^
0`
1/
0S
0X
0V
0Y
0W
0Z
0)
0/
0.
0-
0,
0U
0+
#550000
18
1&
12
1$
0!
04
0"
1D
1I
1L
1G
0E
0B
0N
0&!
0b
0l
1q
1e
1+!
1f
1-!
1i
1s
1#!
0w
1u
#560000
08
1%
11
1#
10
0D
1H
1K
1F
1C
1d
1k
1h
1,!
0f
0]!
0-!
11!
12!
0i
1m
0u
0v
1w
1{
1"!
1'!
0X!
0G!
0[!
0F!
0V!
0E!
0#!
1|
1}
1$!
1)!
1x
0|
#562500
1!
1B
1b
#570000
18
0%
01
0#
14
15
1D
0H
0K
0F
1O
1N
1&!
1!!
0k
0h
0,!
1f
1-!
01!
02!
1i
0m
0s
1u
1v
0w
0{
1|
0"!
0'!
1(!
0(!
0|
0}
0$!
0)!
0x
0u
1y
1~
1%!
1*!
0y
0*!
0%!
0~
1]
1\
1[
1Z
1R
1S
1T
1U
0[
0\
0]
0Z
1+
1*
1)
1(
0T
0S
0R
0U
0+
0*
0)
0(
#575000
0!
0B
0b
#580000
08
1#
1"
06
0D
1F
1E
0P
0z
1l
1k
0f
0i
1s
1{
1"!
1'!
1w
#587500
1!
1B
1b
#590000
18
1%
11
0$
1'
13
07
1D
1J
1H
1M
1K
0G
0Q
0c
0q
1h
1g
1,!
1.!
1f
1/!
15!
19!
1=!
0-!
11!
12!
1t
0s
0{
0"!
1#!
0'!
1$!
0#!
0$!
1%!
0%!
1\
1S
0\
1)
0S
0)
#600000
08
1$
0!
0#
00
0&
02
0D
1G
0F
0B
0C
0I
0L
0e
0+!
0d
0b
0k
1q
0f
1]!
0/!
10!
05!
16!
09!
0=!
1>!
0t
1?!
0>!
17!
06!
13!
00!
03!
14!
07!
18!
0?!
1@!
0@!
08!
04!
1a
1_
1^
1V
1X
1Y
0^
0_
0a
1/
1.
1,
0Y
0X
0V
0/
0.
0,
